{
  "font": {
    "body": "Raleway",
    "title": "wookianos",
    "intro": "wookianos",
    "outline": "wookianos",
    "menu": "wookianos",
    "content": "wookianos"
  },
  "menu" : [
    {
      "name": "ስለ እኔ",
      "link": "about"
    },{
    "name": "ቴክኖሎጂዎች",
    "link": "technologies"
    },{
    "name": "ፍፃሜዎች",
    "link": "accomplishments"
    },{
    "name": "የስራ ልምድ",
    "link": "experience"
    },{
    "name": "ትምህርት \/ ስልጠናዎች",
    "link": "education"
    },{
    "name": "አድራሻ",
    "link": "contact"
    }
  ],
  "intro" : {
    "title": "እስክንድር ጌታሁን",
    "subtitle": "Full-Stack Developer"
  },
  "about" : {
    "title": "ስለ እኔ",
    "content": [
      "As confirmed by my portfolio content and <a href='https://github.com/eskinderg' target='_blank'>code</a>, I combine my knowledge and experience in order to develop professional web applications. I use the best practices to produce a clean code that is easy to debug and maintain.",
      "I have a passion for web development and continue to learn the latest technological advancements."
    ],
    "button": "ካሪኩለም ሺቴ",
    "pdf": "Adobe Acrobat Version (pdf)",
    "word": "Word Document Version (docx)"
  },
  "technologies" : {
    "title": "ቴክኖሎጂዎች",
    "content": "",
    "masteries": [
      {
        "title": "",
        "img": "bg-angular"
      },{
      "title": "",
      "img": "bg-typescript"
      },{
      "title": "",
      "img": "bg-javascript"
      },{
      "title": "",
      "img": "bg-jquery"
      },{
      "title": "",
      "img": "bg-css"
      },{
      "title": "",
      "img": "bg-netcore"
      },{
      "title": "",
      "img": "bg-git"
      },{
      "title": "",
      "img": "bg-gulp"
      },{
      "title": "",
      "img": "bg-karma"
      },{
      "title": "",
      "img": "bg-facebook"
      },{
      "title": "",
      "img": "bg-google"
      },{
      "title": "",
      "img": "bg-bootstrap"
      },{
      "title": "",
      "img": "bg-angularmat"
      },{
      "title": "",
      "img": "bg-foundation"
      },{
      "title": "",
      "img": "bg-html"
      },{
      "title": "",
      "img": "bg-php"
      },{
      "title": "",
      "img": "bg-mongo"
      },{
      "title": "",
      "img": "bg-mysql"
      },{
      "title": "",
      "img": "bg-photoshop"
      },{
      "title": "",
      "img": "bg-illustrator"
      },{
      "title": "",
      "img": "bg-webpack"
      },{
      "title": "",
      "img": "bg-sass"
      }
    ]
  },
  "projects" : {
    "title": "ስራዎች",
    "projects": [
      {
        "title": "Or-co.gr",
        "subtitle": "2017",
        "img": "bg-orco"
      },{
      "title": "Book'n'Bloom",
      "subtitle": "2016 - 2017",
      "img": "bg-booknbloom"
      },{
      "title": "Media Ram",
      "subtitle": "2016",
      "img": "bg-media-ram"
      },{
      "title": "Inrealty.gr",
      "subtitle": "2015",
      "img": "bg-inrealty"
      },{
      "title": "Swinburne ",
      "subtitle": "2014",
      "img": "bg-swinburne"
      },{
      "title": "Sonon website",
      "subtitle": "2013",
      "img": "bg-sonon"
      },{
      "title": "Tap it right!",
      "subtitle": "2012",
      "img": "bg-tapitright"
      },{
      "title": "Help!!!",
      "subtitle": "2011",
      "img": "bg-help"
      },{
      "title": "Thesis",
      "subtitle": "2008",
      "img": "bg-thesis"
      }
    ],
    "button": "Load more"
  },
  "accomplishments" : {
    "title": "ፍፃሜዎች",
    "content": [
      {
        "title": "2005-2006 ዓ.ም",
        "paragraph": "Developed websites using WordPress, OpenCart and other opensource technologies"
      },{
      "title": "2008 ዓ.ም",
      "paragraph": "Participated on OAuth implementation for user roles and permissions using JWT (JSON web token)"
      },{
      "title": "2008",
      "paragraph": "Presented my thesis on a new data compression algorithm in the 2nd Panhellenic Conference of Computer Science in Samos called “Eureka”, which was acknowledged for its efficiency."
      }
    ]
  },
  "experience" : {
    "title": "የስራ ልምድ",
    "content": [
      {
        "title":"Freelance Web Developer (Front End Developer)",
        "subtitle":"Front End (Angular), Elance",
        "year":"ነሐሴ 2010 - አሁን",
        "intro": "Freelance",
        "elements":[
          {
            "type":"list",
            "header":"Key Responsibilities include but not limited to:",
            "list": [
              "Provided support for different websites ",
              "Created SPA, user interactive (UI) web pages using web technologies like HTML5, SASS, Typescript, Angular2 and Bootstrap.",
              "Created and used Reducers that received Actions to modify the store State.",
              "Created Action dispatch to deploy Actions to add Dynamic Functionalities",
              "Created custom NPM modules.",
              "Developed administrative UI Components using Angular2, Typescript and Webpack",
              "Used Bootstrap for Responsive Web design.",
              "Optimized Front End assets for speed and performance",
              "Used Middleware, Redux-Promise in application to retrieve data from Back-End and to also perform RESTFUL services.",
              "Created custom Angular Components including Breadcrumbs, Reactive Forms, Form Validators, Tabbed Components and Toggle Buttons."
            ]
          }
        ],
        "used":["Angular" ,"Typescript" ,"JQuery" ,"Java Script","Bootstrap" ,"Node JS" ,"HTML5" ,"Sass" ]
      },{
      "title":"Web Developer (Front End)",
      "subtitle":"Front End, Nuaxis.",
      "year":"ሐምሌ 2008 - ሰኔ 2010",
      "intro": "Nuaxis",
      "elements":[
        {
          "type":"list",
          "header":"Key Responsibilities include but not limited to:",
          "list": [
            "Created programs as per user / design requirements using AngularJS",
            "Collaborated with cross-functional teams (DEV, UX/UI & BA) to define, design, and deliver creative digital solutions",
            "Utilized, automated unit tests and integration tests for application lifecycle",
            "Executed Agile Developmental techniques",
            "Utilized industry best practices to create effective business solutions for clients",
            "Participated and contributed towards senior-level technology discussions",
            "Created web forms using bootstrap.",
            "Used Git flow techniques for feature branching, merging and continuous integration",
            "Implemented google analytics using angularitics",
            "Participated on OAuth implementation for user’s role and permissions using JWT (JSON web token)",
            "Created migration scripts for Postgres database systems using Sequelize-CLI ORM",
            "Consumed backend RESTful API services",
            "Produced reports and statistical information for managers using code climate, and mocha testing framework",
            "Used bootstrap CSS to create, modify and update web layouts",
            "Created angular 1.5 components, directives and filters",
            "Used Node JS schema validator for backend validation",
            "Utilized, automated unit tests and integration tests for application lifecycle",
            "Performed unit and integration test for frontend and backend systems using AngularJS and NodeJS"
          ]
        }
      ],
      "used":["Angular" ,"Typescript" ,"Javascript" ,"jQuery" ,"HTML5" ,"Sass" ,"Bootstrap", "Google API", "Gulp","OAuth","NodeJS","Postgres SQL","Git"]
      },{
      "title":"Software Engineer II",
      "year":"ጥቅምት 2008 - ሐምሌ 2008",
      "intro": "Bloomberg BNA",
      "elements":[
        {
          "type":"list",
          "header":"Key Responsibilities include but not limited to:",
          "list": [
            "E commerce development using Agile methodologies",
            "Full Stack web development using ASP .Net MVC, C#, Angularjs and MSSQL.",
            "Provided support for legacy applications and strategic migration planning for internal legacy web application.",
            "Integrated Asp MVC with Ektron system",
            "Designed modern architectural patterns for new and legacy systems.",
            "Wrote Front-end, Back-end Unit Tests that for re factoring existing code and for continuous integration deployment process.",
            "Provided statistical information for senior managers"
          ]
        }
      ],
      "used":["Angular", "Javascript" ,"jQuery" ,"HTML5" ,"Sass" ,"Bootstrap", "C#", "ASP MVC","Entity Framework", "Gulp","OAuth","MSSQL","Git"]
      },{
      "title":"Web Developer & Designer",
      "subtitle":"Full-Stack Software Developer & Designer",
      "year":"ታኅሣሥ 2007 - ጥቅምት2008",
      "intro": "",
      "elements" : [
        {
          "type":"list",
          "header":"Key Responsibilities include but not limited to:",
          "list": [
            "Full Stack development using LAMP stack.",
            "Maintained website for most up-to date technology, software, and information",
            "Developed and implemented mobile device responsive UI designs and back-end analytics tracking",
            "Customized, Implemented WordPress themes and plugins.",
            "Provided support for different websites "
          ]
        }
      ],
      "used":["PHP","C#","WordPress","OpenCart", "HTML5", "JQuery", "CSS3", "Javascript"]
      },{
      "title":"Web Developer (Full Stack Developer)",
      "subtitle":"Addis Ababa University, Ethiopia",
      "year":"ነሐሴ 2005 - ታኅሣሥ 2007",
      "intro": "",
      "elements" : [
        {
          "type":"list",
          "header":"Key Responsibilities include but not limited to:",
          "list": [
            "Designed visual layout of websites.",
            "Created Stored Procedures using MSSQL.",
            "Tested a website before it goes live and identify problems.",
            "Advised users on the functionality of the website.",
            "Changed code of an existing website using MVC, C#, Entity Framework and LINQ technologies.",
            "Optimized web assets for optimal speed and performance",
            "Produced reports and statistical information for senior managers"
          ]
        }
      ],
      "used":["C#", "MSSQL","ASP.Net","LINQ","Entity Framework","PHP","HTML5","CSS3","JavaScript", "jQuery"]
      }
    ]
  },
  "education": {
    "title": "ትምህርትና \/ ስልጠናዎች",
    "content": [
      {
        "title": "B.Sc in Computer Science & Information Technology",
        "subtitle": "አርባ ምንጭ  ዩኒሸርስቲ, አርባ ምንጭ, ኢትዮጵያ",
        "img": "bg-graduation",
        "year": "1996 - 2000 ዓ.ም"
      },{
      "title": "Microsoft Certified Professional",
      "subtitle": "Microsoft",
      "img": "bg-microsoft",
      "year": "2006 ዓ.ም"
      },{
      "title": "Microsoft Certified C# Specialist",
      "subtitle": "Microsoft",
      "img": "bg-microsoft",
      "year": "2006 ዓ.ም"
      }
    ]
  },
  "conferences": {
    "title": "",
    "content": [
    ]
  },
  "contact": {
    "intro": "ጥያቄ ካላችሁ ከዚህ በታች በሚገኘዉ ስልክ ቁጥር ወይም ኢሜሌ አግኙኝ",
    "input": [
      "NAME","EMAIL","MESSAGE"
    ],
    "mail":"eskinderget@gmail.com",
    "phone":"+251-911-184987",
    "button":"Send message"
  },
  "footer": {
    "content": "\u00A9 ፳፻፲፬"
  },
  "social": {
    "github": "https://github.com/eskinderg",
    "stackoverflow": "https://stackoverflow.com/users/2876957/eskinder",
    "linkedin": "https://www.linkedin.com/in/eskinderg"
  }
}
